{
  "rulesDirectory": [
    "node_modules/codelyzer",
    "node_modules/tslint-jasmine-rules/dist",
    "node_modules/tslint-eslint-rules/dist/rules",
    "ts-lint-rules"
  ],
  "rules": {
    "adjacent-overload-signatures": true,
    "ban-types": [
      true,
      [
        "Number",
        "Use number instead."
      ],
      [
        "String",
        "Use string instead."
      ],
      [
        "Boolean",
        "Use boolean instead."
      ],
      [
        "Object",
        "Use object instead."
      ]
    ],
    "member-access": [
      true,
      "no-public"
    ],
    "member-ordering": [
      true,
      {
        "order": [
          "static-field",
          "instance-field",
          "static-method",
          "instance-method"
        ]
      }
    ],
    "no-empty-interface": true,
    "no-inferrable-types": [
      true,
      "ignore-params",
      "ignore-properties"
    ],
    "no-non-null-assertion": true,
    "no-parameter-reassignment": true,
    "prefer-for-of": true,
    "typedef": [
      true,
      "call-signature",
      "parameter",
      "property-declaration",
      "member-variable-declaration"
    ],
    "typedef-whitespace": [
      true,
      {
        "call-signature": "nospace",
        "index-signature": "nospace",
        "parameter": "nospace",
        "property-declaration": "nospace",
        "variable-declaration": "nospace"
      }
    ],
    "unified-signatures": true,
    "ban-comma-operator": true,
    "curly": true,
    "forin": true,
    "import-blacklist": [
      true,
      "rxjs/Rx",
      ["rxjs/internal/.*"]
    ],
    "label-position": true,
    "no-arg": true,
    "no-bitwise": true,
    "no-conditional-assignment": true,
    "no-console": [
      true
    ],
    "no-consecutive-blank-lines": true,
    "no-construct": true,
    "no-debugger": true,
    "no-duplicate-super": true,
    "no-duplicate-switch-case": true,
    "no-duplicate-variable": true,
    "no-dynamic-delete": true,
    "no-empty": false,
    "no-eval": true,
    "no-for-in-array": true,
    "no-inferred-empty-object-type": true,
    "no-invalid-template-strings": true,
    "no-misused-new": true,
    "no-shadowed-variable": true,
    "no-sparse-arrays": true,
    "no-string-throw": true,
    "no-switch-case-fall-through": true,
    "no-unsafe-finally": true,
    "no-unused-expression": true,
    "no-use-before-declare": true,
    "no-var-keyword": true,
    "no-void-expression": [
      true,
      "ignore-arrow-function-shorthand"
    ],
    "prefer-conditional-expression": true,
    "prefer-object-spread": true,
    "radix": true,
    "triple-equals": [
      true,
      "allow-null-check"
    ],
    "use-isnan": true,
    "deprecation": {
      "severity": "warn"
    },
    "eofline": true,
    "indent": [
      true,
      "spaces",
      2
    ],
    "linebreak-style": [
      true,
      "LF"
    ],
    "max-line-length": [
      true,
      160
    ],
    "prefer-const": true,
    "trailing-comma": [
      true,
      {
        "objects": "never",
        "arrays": "never",
        "functions": "never"
      }
    ],
    "array-type": [
      true,
      "array"
    ],
    "arrow-parens": [
      true,
      "ban-single-arg-parens"
    ],
    "arrow-return-shorthand": [
      true,
      "multiline"
    ],
    "callable-types": true,
    "class-name": true,
    "comment-format": [
      true,
      "check-space"
    ],
    "encoding": true,
    "import-spacing": true,
    "new-parens": true,
    "no-angle-bracket-type-assertion": true,
    "no-boolean-literal-compare": true,
    "no-irregular-whitespace": true,
    "no-trailing-whitespace": true,
    "no-unnecessary-callback-wrapper": true,
    "no-unnecessary-initializer": true,
    "number-literal-format": true,
    "object-literal-key-quotes": [
      true,
      "consistent-as-needed"
    ],
    "one-line": [
      true,
      "check-open-brace",
      "check-catch",
      "check-else",
      "check-whitespace"
    ],
    "one-variable-per-declaration": true,
    "prefer-method-signature": true,
    "quotemark": [
      true,
      "single"
    ],
    "semicolon": [
      true,
      "always",
      "ignore-bound-class-methods"
    ],
    "space-before-function-paren": [
      true,
      "never"
    ],
    "whitespace": [
      true,
      "check-branch",
      "check-decl",
      "check-operator",
      "check-separator",
      "check-type"
    ],
    "directive-selector": [
      true,
      "attribute",
      "coyo",
      "camelCase"
    ],
    "component-selector": [
      true,
      "element",
      "coyo",
      "kebab-case"
    ],
    "no-output-on-prefix": true,
    "no-inputs-metadata-property": true,
    "no-outputs-metadata-property": true,
    "no-host-metadata-property": true,
    "no-input-rename": true,
    "no-output-rename": true,
    "use-life-cycle-interface": true,
    "use-pipe-transform-interface": true,
    "component-class-suffix": true,
    "directive-class-suffix": true,
    "no-focused-tests": true,
    "input-output-doc": true,
    "completed-docs": [false, {
      "methods": {
        "privacies": ["public", "protected"],
        "locations": ["instance", "static"]
      },
      "classes": {
        "visibilities": ["exported"]
      },
      "interfaces": {
        "visibilities": ["exported"]
      },
      "functions": {
        "visibilities": ["exported"]
      }
    }],
    "jsdoc-format": true,
    "valid-jsdoc": [true, {
      "requireReturn": false,
      "requireReturnType": false,
      "requireParamType": false
    }],
    "ordered-imports": true
  }
}
