<svg xmlns="http://www.w3.org/2000/svg" class="o365" width="30" height="35" viewBox="0 0 30 35">
    <g fill="none" fill-rule="evenodd">
        <path fill="#0D7C41" d="M1.429 0H10v18H0V1.385C0 .62.64 0 1.429 0z"/>
        <path fill="#1FA366" d="M10 0h10v12H10z"/>
        <path fill="#31C481" d="M20 0h8.571C29.361 0 30 .616 30 1.375v19.25c0 .76-.64 1.375-1.429 1.375H20V0z"/>
        <path fill="#0D7C41" d="M10 12h10v14.667c0 .736-.56 1.333-1.25 1.333H10V12z"/>
        <path fill="#175C37" d="M0 18h10v15.692C10 34.415 9.36 35 8.571 35H1.43C.639 35 0 34.415 0 33.692V18z"/>
    </g>
</svg>
