<svg xmlns="http://www.w3.org/2000/svg" class="caret-right" width="5" height="8" viewBox="0 0 5 8">
    <path fill="#697687" fill-rule="nonzero" d="M2.586 4L.293 6.293a1 1 0 1 0 1.414 1.414l3-3a1 1 0 0 0 0-1.414l-3-3A1 1 0 1 0 .293 1.707L2.586 4z"/>
</svg>
